{
	"info": {
		"_postman_id": "98b5320c-eebc-4fea-a5d0-1bcad9895b08",
		"name": "Web",
		"schema": "https://schema.getpostman.com/json/collection/v2.1.0/collection.json"
	},
	"item": [
		{
			"name": "http://localhost:4000/api/sign/login",
			"request": {
				"method": "POST",
				"header": [],
				"body": {
					"mode": "raw",
					"raw": "{\n    \"email\": \"ihsane@icloud.com\",\n    \"password\": \"19982021\"\n}",
					"options": {
						"raw": {
							"language": "json"
						}
					}
				},
				"url": {
					"raw": "http://localhost:4000/api/sign/login",
					"protocol": "http",
					"host": [
						"localhost"
					],
					"port": "4000",
					"path": [
						"api",
						"sign",
						"login"
					]
				}
			},
			"response": []
		},
		{
			"name": "http://localhost:4000/api/post/",
			"protocolProfileBehavior": {
				"disableBodyPruning": true
			},
			"request": {
				"method": "GET",
				"header": [],
				"body": {
					"mode": "raw",
					"raw": "{\n    \"firstname\": \"test\",\n    \"lastname\": \"test\",\n    \"login\": \"test\",\n    \"email\": \"test@test.com\",\n    \"password\": \"testtest\"\n}",
					"options": {
						"raw": {
							"language": "json"
						}
					}
				},
				"url": {
					"raw": "http://localhost:4000/api/post/",
					"protocol": "http",
					"host": [
						"localhost"
					],
					"port": "4000",
					"path": [
						"api",
						"post",
						""
					]
				}
			},
			"response": []
		},
		{
			"name": "http://localhost:4000/api/user/delete",
			"request": {
				"method": "DELETE",
				"header": [],
				"body": {
					"mode": "raw",
					"raw": "{\n    \n}",
					"options": {
						"raw": {
							"language": "json"
						}
					}
				},
				"url": {
					"raw": "http://localhost:4000/api/user/delete",
					"protocol": "http",
					"host": [
						"localhost"
					],
					"port": "4000",
					"path": [
						"api",
						"user",
						"delete"
					]
				}
			},
			"response": []
		},
		{
			"name": "http://localhost:4000/api/sign/register",
			"request": {
				"method": "POST",
				"header": [],
				"body": {
					"mode": "raw",
					"raw": "{\n    \"firstname\": \"test\",\n    \"lastname\": \"test\",\n    \"login\": \"test\",\n    \"email\": \"test@test.com\",\n    \"password\": \"testtest\"\n}",
					"options": {
						"raw": {
							"language": "json"
						}
					}
				},
				"url": {
					"raw": "http://localhost:4000/api/sign/register",
					"protocol": "http",
					"host": [
						"localhost"
					],
					"port": "4000",
					"path": [
						"api",
						"sign",
						"register"
					]
				}
			},
			"response": []
		},
		{
			"name": "http://localhost:4000/api/user/",
			"request": {
				"method": "GET",
				"header": [],
				"url": {
					"raw": "http://localhost:4000/api/user/",
					"protocol": "http",
					"host": [
						"localhost"
					],
					"port": "4000",
					"path": [
						"api",
						"user",
						""
					]
				}
			},
			"response": []
		},
		{
			"name": "http://localhost:4000/api/user/all",
			"request": {
				"method": "GET",
				"header": [],
				"url": {
					"raw": "http://localhost:4000/api/user/all",
					"protocol": "http",
					"host": [
						"localhost"
					],
					"port": "4000",
					"path": [
						"api",
						"user",
						"all"
					]
				}
			},
			"response": []
		},
		{
			"name": "http://localhost:4000/api/user/update",
			"request": {
				"method": "PUT",
				"header": [],
				"body": {
					"mode": "raw",
					"raw": "{\n    \"bio\": \"hola\"\n}",
					"options": {
						"raw": {
							"language": "json"
						}
					}
				},
				"url": {
					"raw": "http://localhost:4000/api/user/update",
					"protocol": "http",
					"host": [
						"localhost"
					],
					"port": "4000",
					"path": [
						"api",
						"user",
						"update"
					]
				}
			},
			"response": []
		},
		{
			"name": "http://localhost:4000/api/post/post",
			"request": {
				"method": "POST",
				"header": [],
				"body": {
					"mode": "raw",
					"raw": "{\n    \"post\": \"hey\"\n}",
					"options": {
						"raw": {
							"language": "json"
						}
					}
				},
				"url": {
					"raw": "http://localhost:4000/api/post/post",
					"protocol": "http",
					"host": [
						"localhost"
					],
					"port": "4000",
					"path": [
						"api",
						"post",
						"post"
					]
				}
			},
			"response": []
		},
		{
			"name": "http://localhost:4000/api/post/followingpost",
			"request": {
				"method": "GET",
				"header": [],
				"url": {
					"raw": "http://localhost:4000/api/post/followingpost",
					"protocol": "http",
					"host": [
						"localhost"
					],
					"port": "4000",
					"path": [
						"api",
						"post",
						"followingpost"
					]
				}
			},
			"response": []
		},
		{
			"name": "http://localhost:4000/api/post/userspost",
			"request": {
				"method": "GET",
				"header": [],
				"url": {
					"raw": "http://localhost:4000/api/post/userspost",
					"protocol": "http",
					"host": [
						"localhost"
					],
					"port": "4000",
					"path": [
						"api",
						"post",
						"userspost"
					]
				}
			},
			"response": []
		},
		{
			"name": "http://localhost:4000/api/post/delete/608ef26c03135c224f010b1f",
			"request": {
				"method": "DELETE",
				"header": [],
				"body": {
					"mode": "raw",
					"raw": "",
					"options": {
						"raw": {
							"language": "json"
						}
					}
				},
				"url": {
					"raw": "http://localhost:4000/api/post/delete/608ef26c03135c224f010b1f",
					"protocol": "http",
					"host": [
						"localhost"
					],
					"port": "4000",
					"path": [
						"api",
						"post",
						"delete",
						"608ef26c03135c224f010b1f"
					]
				}
			},
			"response": []
		},
		{
			"name": "http://localhost:4000/api/friend/all_follower",
			"request": {
				"method": "GET",
				"header": [],
				"url": {
					"raw": "http://localhost:4000/api/friend/all_follower",
					"protocol": "http",
					"host": [
						"localhost"
					],
					"port": "4000",
					"path": [
						"api",
						"friend",
						"all_follower"
					]
				}
			},
			"response": []
		},
		{
			"name": "http://localhost:4000/api/friend/all_following",
			"request": {
				"method": "GET",
				"header": [],
				"url": {
					"raw": "http://localhost:4000/api/friend/all_following",
					"protocol": "http",
					"host": [
						"localhost"
					],
					"port": "4000",
					"path": [
						"api",
						"friend",
						"all_following"
					]
				}
			},
			"response": []
		},
		{
			"name": "http://localhost:4000/api/friend/follow",
			"request": {
				"method": "PATCH",
				"header": [],
				"body": {
					"mode": "raw",
					"raw": "{\n    \"userid\": \"6085825ec73e24077fbd3c8c\"\n}",
					"options": {
						"raw": {
							"language": "json"
						}
					}
				},
				"url": {
					"raw": "http://localhost:4000/api/friend/follow",
					"protocol": "http",
					"host": [
						"localhost"
					],
					"port": "4000",
					"path": [
						"api",
						"friend",
						"follow"
					]
				}
			},
			"response": []
		},
		{
			"name": "http://localhost:4000/api/friend/unfollow",
			"request": {
				"method": "PATCH",
				"header": [],
				"body": {
					"mode": "raw",
					"raw": "{\n    \"userid\": \"6085825ec73e24077fbd3c8c\"\n}",
					"options": {
						"raw": {
							"language": "json"
						}
					}
				},
				"url": {
					"raw": "http://localhost:4000/api/friend/unfollow",
					"protocol": "http",
					"host": [
						"localhost"
					],
					"port": "4000",
					"path": [
						"api",
						"friend",
						"unfollow"
					]
				}
			},
			"response": []
		},
		{
			"name": "http://localhost:4000/api/friend/search",
			"protocolProfileBehavior": {
				"disableBodyPruning": true
			},
			"request": {
				"method": "GET",
				"header": [],
				"body": {
					"mode": "raw",
					"raw": "{\n    \"firstname\": \"Alex\"\n}",
					"options": {
						"raw": {
							"language": "json"
						}
					}
				},
				"url": {
					"raw": "http://localhost:4000/api/friend/search",
					"protocol": "http",
					"host": [
						"localhost"
					],
					"port": "4000",
					"path": [
						"api",
						"friend",
						"search"
					]
				}
			},
			"response": []
		},
		{
			"name": "http://localhost:4000/api/friend/message",
			"request": {
				"method": "POST",
				"header": [],
				"body": {
					"mode": "raw",
					"raw": "{\n    \"id\": \"6085825ec73e24077fbd3c8c\",\n    \"message\": \"Salut\"\n}",
					"options": {
						"raw": {
							"language": "json"
						}
					}
				},
				"url": {
					"raw": "http://localhost:4000/api/friend/message",
					"protocol": "http",
					"host": [
						"localhost"
					],
					"port": "4000",
					"path": [
						"api",
						"friend",
						"message"
					]
				}
			},
			"response": []
		},
		{
			"name": "http://localhost:4000/api/friend/all_messages",
			"request": {
				"method": "GET",
				"header": [],
				"url": {
					"raw": "http://localhost:4000/api/friend/all_messages",
					"protocol": "http",
					"host": [
						"localhost"
					],
					"port": "4000",
					"path": [
						"api",
						"friend",
						"all_messages"
					]
				}
			},
			"response": []
		},
		{
			"name": "http://localhost:4000/api/friend/all_messages_user",
			"request": {
				"method": "GET",
				"header": [],
				"url": {
					"raw": "http://localhost:4000/api/friend/all_messages_user",
					"protocol": "http",
					"host": [
						"localhost"
					],
					"port": "4000",
					"path": [
						"api",
						"friend",
						"all_messages_user"
					]
				}
			},
			"response": []
		},
		{
			"name": "http://localhost:4000/api/post/like",
			"request": {
				"method": "PATCH",
				"header": [],
				"body": {
					"mode": "raw",
					"raw": "{\n    \"postId\": \"608eec597dfcc40ad77276f0\",\n    \"id\": \"608ef1c3133f011e69fbc740\"\n}",
					"options": {
						"raw": {
							"language": "json"
						}
					}
				},
				"url": {
					"raw": "http://localhost:4000/api/post/like",
					"protocol": "http",
					"host": [
						"localhost"
					],
					"port": "4000",
					"path": [
						"api",
						"post",
						"like"
					]
				}
			},
			"response": []
		},
		{
			"name": "http://localhost:4000/api/post/unlike",
			"request": {
				"method": "PATCH",
				"header": [],
				"body": {
					"mode": "raw",
					"raw": "{\n    \"postId\": \"608eec597dfcc40ad77276f0\",\n    \"id\": \"608ef1c3133f011e69fbc740\"\n}",
					"options": {
						"raw": {
							"language": "json"
						}
					}
				},
				"url": {
					"raw": "http://localhost:4000/api/post/unlike",
					"protocol": "http",
					"host": [
						"localhost"
					],
					"port": "4000",
					"path": [
						"api",
						"post",
						"unlike"
					]
				}
			},
			"response": []
		},
		{
			"name": "http://localhost:4000/api/post/com",
			"request": {
				"method": "PATCH",
				"header": [],
				"body": {
					"mode": "raw",
					"raw": "{\n    \"postId\": \"608eec597dfcc40ad77276f0\",\n    \"text\": \"waw\"\n}",
					"options": {
						"raw": {
							"language": "json"
						}
					}
				},
				"url": {
					"raw": "http://localhost:4000/api/post/com",
					"protocol": "http",
					"host": [
						"localhost"
					],
					"port": "4000",
					"path": [
						"api",
						"post",
						"com"
					]
				}
			},
			"response": []
		},
		{
			"name": "http://localhost:4000/api/post/delete_com",
			"request": {
				"method": "DELETE",
				"header": [],
				"body": {
					"mode": "raw",
					"raw": "{\n    \"comId\": \"608ef636bb449d250de098a1\"\n}",
					"options": {
						"raw": {
							"language": "json"
						}
					}
				},
				"url": {
					"raw": "http://localhost:4000/api/post/delete_com/608eec597dfcc40ad77276f0",
					"protocol": "http",
					"host": [
						"localhost"
					],
					"port": "4000",
					"path": [
						"api",
						"post",
						"delete_com",
						"608eec597dfcc40ad77276f0"
					]
				}
			},
			"response": []
		}
	]
}